{
	"appId": "io.ionic.starter",
	"appName": "demoIonic",
	"webDir": "www",
	"bundledWebRuntime": false,
	"cordova": {
		"preferences": {
			"ScrollEnabled": "false",
			"BackupWebStorage": "none",
			"SplashMaintainAspectRatio": "true",
			"FadeSplashScreenDuration": "300",
			"SplashShowOnlyFirstTime": "false",
			"SplashScreen": "screen",
			"SplashScreenDelay": "3000"
		}
	}
}
